%YAML 1.1
%TAG !u! tag:unity3d.com,2011:
--- !u!114 &11400000
MonoBehaviour:
  m_ObjectHideFlags: 0
  m_PrefabParentObject: {fileID: 0}
  m_PrefabInternal: {fileID: 0}
  m_GameObject: {fileID: 0}
  m_Enabled: 1
  m_EditorHideFlags: 0
  m_Script: {fileID: 11500000, guid: 3fa9b9737ebac44d39dbc40cde8987a6, type: 3}
  m_Name: Scenes
  m_EditorClassIdentifier: 
  favourites:
  - _GUID: 24fb48fdb2765ee4c9b4da7296367147
    isPinned: 0
    shouldDrawExtras: 0
  - _GUID: 30f9b1f5f6993f245b7f9094fb0ac1e1
    isPinned: 0
    shouldDrawExtras: 0
